TP2
…
#creacin de modelos
                     
models <- tibble(logit_formulas) %>% # dataframe a partir del objeto formulas
  mutate(models = names(logit_formulas), # columna con los nombres de las formulas
         expression = paste(logit_formulas), # columna con las expresiones de las formulas
         mod = map(logit_formulas, ~glm(., family = 'binomial', data = preca_train)))

#datos de los modelos
models <- models %>% mutate(tidy = map(mod, tidy)) %>% #formato tidy
  unnest(tidy) #resultados de los modelos 

models

## # A tibble: 55 x 9
##    logit_formulas models   expression   mod   term  estimate std.error statistic
##    <named list>   <chr>    <chr>        <nam> <chr>    <dbl>     <dbl>     <dbl>
##  1 <formula>      completo precariedad~ <glm> (Int~   2.20      0.137     16.1  
##  2 <formula>      completo precariedad~ <glm> gene~  -0.160     0.0682    -2.35 
##  3 <formula>      completo precariedad~ <glm> ipcf~  -1.12      0.0759   -14.7  
##  4 <formula>      completo precariedad~ <glm> ipcf~  -1.60      0.114    -14.0  
##  5 <formula>      completo precariedad~ <glm> nive~  -0.441     0.0678    -6.51 
##  6 <formula>      completo precariedad~ <glm> nive~  -0.0387    0.129     -0.300
##  7 <formula>      completo precariedad~ <glm> rang~  -1.20      0.0935   -12.8  
##  8 <formula>      completo precariedad~ <glm> rang~  -1.75      0.0999   -17.5  
##  9 <formula>      completo precariedad~ <glm> rang~  -1.01      0.144     -7.02 
## 10 <formula>      completo precariedad~ <glm> sect~   0.0281    0.104      0.269
## # ... with 45 more rows, and 1 more variable: p.value <dbl>
…
#Evaluacin de modelos

models <- models %>% 
  mutate(glance = map(mod,glance))
# Obtener las medidas de evaluacion de interes
models <- models %>% 
  unnest(glance) %>%
  # Calculamos la deviance explicada
  mutate(perc_explained_dev = 1-deviance/null.deviance) %>% 
  select(-c(models, df.null, AIC, BIC)) %>% 
  arrange(deviance)

models

## # A tibble: 55 x 14
##    logit_formulas expression   mod   term  estimate std.error statistic  p.value
##    <named list>   <chr>        <nam> <chr>    <dbl>     <dbl>     <dbl>    <dbl>
##  1 <formula>      precariedad~ <glm> (Int~   2.20      0.137     16.1   3.61e-58
##  2 <formula>      precariedad~ <glm> gene~  -0.160     0.0682    -2.35  1.90e- 2
##  3 <formula>      precariedad~ <glm> ipcf~  -1.12      0.0759   -14.7   5.10e-49
##  4 <formula>      precariedad~ <glm> ipcf~  -1.60      0.114    -14.0   1.27e-44
##  5 <formula>      precariedad~ <glm> nive~  -0.441     0.0678    -6.51  7.75e-11
##  6 <formula>      precariedad~ <glm> nive~  -0.0387    0.129     -0.300 7.64e- 1
##  7 <formula>      precariedad~ <glm> rang~  -1.20      0.0935   -12.8   2.05e-37
##  8 <formula>      precariedad~ <glm> rang~  -1.75      0.0999   -17.5   1.56e-68
##  9 <formula>      precariedad~ <glm> rang~  -1.01      0.144     -7.02  2.26e-12
## 10 <formula>      precariedad~ <glm> sect~   0.0281    0.104      0.269 7.88e- 1
## # ... with 45 more rows, and 6 more variables: null.deviance <dbl>,
## #   logLik <dbl>, deviance <dbl>, df.residual <int>, nobs <int>,
## #   perc_explained_dev <dbl>
…
